%YAML 1.1
%TAG !u! tag:unity3d.com,2011:
--- !u!1001 &2808456351924094409
PrefabInstance:
  m_ObjectHideFlags: 0
  serializedVersion: 2
  m_Modification:
    serializedVersion: 3
    m_TransformParent: {fileID: 0}
    m_Modifications:
    - target: {fileID: -8679921383154817045, guid: 7143b3973fc7e464ba189c5e776a4102, type: 3}
      propertyPath: m_LocalScale.x
      value: 0.09999999
      objectReference: {fileID: 0}
    - target: {fileID: -8679921383154817045, guid: 7143b3973fc7e464ba189c5e776a4102, type: 3}
      propertyPath: m_LocalScale.y
      value: 0.13011104
      objectReference: {fileID: 0}
    - target: {fileID: -8679921383154817045, guid: 7143b3973fc7e464ba189c5e776a4102, type: 3}
      propertyPath: m_LocalScale.z
      value: 0.1
      objectReference: {fileID: 0}
    - target: {fileID: -8679921383154817045, guid: 7143b3973fc7e464ba189c5e776a4102, type: 3}
      propertyPath: m_LocalPosition.x
      value: 5.7346625
      objectReference: {fileID: 0}
    - target: {fileID: -8679921383154817045, guid: 7143b3973fc7e464ba189c5e776a4102, type: 3}
      propertyPath: m_LocalPosition.y
      value: 0.063122004
      objectReference: {fileID: 0}
    - target: {fileID: -8679921383154817045, guid: 7143b3973fc7e464ba189c5e776a4102, type: 3}
      propertyPath: m_LocalPosition.z
      value: 8.9651985
      objectReference: {fileID: 0}
    - target: {fileID: -8679921383154817045, guid: 7143b3973fc7e464ba189c5e776a4102, type: 3}
      propertyPath: m_LocalRotation.w
      value: 0.99992275
      objectReference: {fileID: 0}
    - target: {fileID: -8679921383154817045, guid: 7143b3973fc7e464ba189c5e776a4102, type: 3}
      propertyPath: m_LocalRotation.x
      value: -0.006769672
      objectReference: {fileID: 0}
    - target: {fileID: -8679921383154817045, guid: 7143b3973fc7e464ba189c5e776a4102, type: 3}
      propertyPath: m_LocalRotation.y
      value: 0.007047744
      objectReference: {fileID: 0}
    - target: {fileID: -8679921383154817045, guid: 7143b3973fc7e464ba189c5e776a4102, type: 3}
      propertyPath: m_LocalRotation.z
      value: 0.007681967
      objectReference: {fileID: 0}
    - target: {fileID: -8679921383154817045, guid: 7143b3973fc7e464ba189c5e776a4102, type: 3}
      propertyPath: m_LocalEulerAnglesHint.x
      value: -0.782
      objectReference: {fileID: 0}
    - target: {fileID: -8679921383154817045, guid: 7143b3973fc7e464ba189c5e776a4102, type: 3}
      propertyPath: m_LocalEulerAnglesHint.y
      value: 0.802
      objectReference: {fileID: 0}
    - target: {fileID: -8679921383154817045, guid: 7143b3973fc7e464ba189c5e776a4102, type: 3}
      propertyPath: m_LocalEulerAnglesHint.z
      value: 0.875
      objectReference: {fileID: 0}
    - target: {fileID: -8679921383154817045, guid: 7143b3973fc7e464ba189c5e776a4102, type: 3}
      propertyPath: m_ConstrainProportionsScale
      value: 0
      objectReference: {fileID: 0}
    - target: {fileID: -7511558181221131132, guid: 7143b3973fc7e464ba189c5e776a4102, type: 3}
      propertyPath: m_Materials.Array.data[0]
      value: 
      objectReference: {fileID: 2100000, guid: b6747bf277df0e344ac544c7cfa37c62, type: 2}
    - target: {fileID: -7511558181221131132, guid: 7143b3973fc7e464ba189c5e776a4102, type: 3}
      propertyPath: m_Materials.Array.data[1]
      value: 
      objectReference: {fileID: 2100000, guid: e79d38e6151d337468deff6e79020212, type: 2}
    - target: {fileID: 919132149155446097, guid: 7143b3973fc7e464ba189c5e776a4102, type: 3}
      propertyPath: m_Name
      value: LesserBulrush
      objectReference: {fileID: 0}
    m_RemovedComponents: []
    m_RemovedGameObjects: []
    m_AddedGameObjects: []
    m_AddedComponents: []
  m_SourcePrefab: {fileID: 100100000, guid: 7143b3973fc7e464ba189c5e776a4102, type: 3}
