%YAML 1.1
%TAG !u! tag:unity3d.com,2011:
--- !u!1001 &2871393937255818648
PrefabInstance:
  m_ObjectHideFlags: 0
  serializedVersion: 2
  m_Modification:
    serializedVersion: 3
    m_TransformParent: {fileID: 0}
    m_Modifications:
    - target: {fileID: -8679921383154817045, guid: b6ead7d9fd3dfa34c881ee4afdb8bc96, type: 3}
      propertyPath: m_LocalScale.x
      value: 1
      objectReference: {fileID: 0}
    - target: {fileID: -8679921383154817045, guid: b6ead7d9fd3dfa34c881ee4afdb8bc96, type: 3}
      propertyPath: m_LocalScale.y
      value: 1
      objectReference: {fileID: 0}
    - target: {fileID: -8679921383154817045, guid: b6ead7d9fd3dfa34c881ee4afdb8bc96, type: 3}
      propertyPath: m_LocalScale.z
      value: 1
      objectReference: {fileID: 0}
    - target: {fileID: -8679921383154817045, guid: b6ead7d9fd3dfa34c881ee4afdb8bc96, type: 3}
      propertyPath: m_LocalPosition.x
      value: 0
      objectReference: {fileID: 0}
    - target: {fileID: -8679921383154817045, guid: b6ead7d9fd3dfa34c881ee4afdb8bc96, type: 3}
      propertyPath: m_LocalPosition.y
      value: -0.35
      objectReference: {fileID: 0}
    - target: {fileID: -8679921383154817045, guid: b6ead7d9fd3dfa34c881ee4afdb8bc96, type: 3}
      propertyPath: m_LocalPosition.z
      value: 0
      objectReference: {fileID: 0}
    - target: {fileID: -8679921383154817045, guid: b6ead7d9fd3dfa34c881ee4afdb8bc96, type: 3}
      propertyPath: m_LocalRotation.w
      value: 1
      objectReference: {fileID: 0}
    - target: {fileID: -8679921383154817045, guid: b6ead7d9fd3dfa34c881ee4afdb8bc96, type: 3}
      propertyPath: m_LocalRotation.x
      value: 0
      objectReference: {fileID: 0}
    - target: {fileID: -8679921383154817045, guid: b6ead7d9fd3dfa34c881ee4afdb8bc96, type: 3}
      propertyPath: m_LocalRotation.y
      value: 0
      objectReference: {fileID: 0}
    - target: {fileID: -8679921383154817045, guid: b6ead7d9fd3dfa34c881ee4afdb8bc96, type: 3}
      propertyPath: m_LocalRotation.z
      value: 0
      objectReference: {fileID: 0}
    - target: {fileID: -8679921383154817045, guid: b6ead7d9fd3dfa34c881ee4afdb8bc96, type: 3}
      propertyPath: m_LocalEulerAnglesHint.x
      value: 0
      objectReference: {fileID: 0}
    - target: {fileID: -8679921383154817045, guid: b6ead7d9fd3dfa34c881ee4afdb8bc96, type: 3}
      propertyPath: m_LocalEulerAnglesHint.y
      value: 0
      objectReference: {fileID: 0}
    - target: {fileID: -8679921383154817045, guid: b6ead7d9fd3dfa34c881ee4afdb8bc96, type: 3}
      propertyPath: m_LocalEulerAnglesHint.z
      value: 0
      objectReference: {fileID: 0}
    - target: {fileID: -8679921383154817045, guid: b6ead7d9fd3dfa34c881ee4afdb8bc96, type: 3}
      propertyPath: m_ConstrainProportionsScale
      value: 1
      objectReference: {fileID: 0}
    - target: {fileID: -7511558181221131132, guid: b6ead7d9fd3dfa34c881ee4afdb8bc96, type: 3}
      propertyPath: m_Materials.Array.data[0]
      value: 
      objectReference: {fileID: 2100000, guid: b99856b856bbc604bbc9f83fd3b6bc89, type: 2}
    - target: {fileID: 919132149155446097, guid: b6ead7d9fd3dfa34c881ee4afdb8bc96, type: 3}
      propertyPath: m_Name
      value: Doormat
      objectReference: {fileID: 0}
    m_RemovedComponents: []
    m_RemovedGameObjects: []
    m_AddedGameObjects: []
    m_AddedComponents: []
  m_SourcePrefab: {fileID: 100100000, guid: b6ead7d9fd3dfa34c881ee4afdb8bc96, type: 3}
